Name,WeightClassKg,Division,AgeRange,Sex,Event,Best3SquatKg,Best3BenchKg,Best3DeadliftKg,TotalKg,Equipment,Place
Ajay,82.5,Masters 50-54,50-54,F,B,,54.43,,54.43,Single-ply,1
Skipper,67.5,Masters 40-44,40-44,M,B,,104.33,,104.33,Single-ply,1
Burns,75,Submasters 33-39,33-39,M,B,,142.88,,142.88,Single-ply,1
Vincent Brown #1,67.5,Submasters 33-39,33-39,M,B,,124.74,,124.74,Single-ply,2
Stephens,90,Submasters 33-39,33-39,M,B,,161.03,,161.03,Single-ply,1
Wachtel,90,Masters 40-44,40-44,M,B,,142.88,,142.88,Single-ply,1
Mark Wade,100,Submasters 33-39,33-39,M,B,,192.78,,192.78,Single-ply,1
Bill Remley,100,Masters 60-64,60-64,M,B,,147.42,,147.42,Single-ply,1
Burtroft,100,Masters 55-59,55-59,M,B,,138.35,,138.35,Single-ply,1
Braden,125+,Juniors 20-23,20-23,M,B,,192.78,,192.78,Single-ply,1
Bloomfield,56,Masters 50-54,50-54,F,D,,,95.25,95.25,Single-ply,1
Elizabeth Pepe,60,Masters 40-44,40-44,F,D,,,149.69,149.69,Single-ply,1
Vincent Brown #1,67.5,Submasters 33-39,33-39,M,D,,,204.12,204.12,Single-ply,1
Tee Meyers,90,Submasters 33-39,33-39,M,D,,,344.73,344.73,Single-ply,1
Bill Remley,100,Masters 60-64,60-64,M,D,,,231.33,231.33,Single-ply,1
Dunn,110,Teen,13-19,M,D,,,204.12,204.12,Single-ply,1
Bloomfield,110,Masters 55-59,55-59,M,D,,,215.46,215.46,Single-ply,1
Kirkpatrick,56,Submasters 33-39,33-39,F,SBD,104.33,56.7,136.08,297.1,Single-ply,1
Denson,67.5,Juniors 20-23,20-23,F,SBD,145.15,58.97,158.76,362.87,Single-ply,1
Guffey,67.5,Teen 17-19,17-19,M,SBD,213.19,122.47,199.58,535.24,Single-ply,1
Vincent Brown #1,67.5,Submasters 33-39,33-39,M,SBD,231.33,124.74,204.12,560.19,Single-ply,1
Burns,67.5,Submasters 33-39,33-39,M,SBD,188.24,142.88,210.92,542.04,Single-ply,2
Fowler,67.5,Masters 45-49,45-49,M,SBD,167.83,120.2,190.51,478.54,Single-ply,1
Elaine Bolster,75,Masters 50-54,50-54,F,SBD,92.99,45.36,97.52,235.87,Single-ply,1
Smith,75,Submasters 33-39,33-39,M,SBD,149.69,108.86,235.87,494.42,Single-ply,1
J. Brogan,75,Masters 50-54,50-54,M,SBD,199.58,117.93,217.72,535.24,Single-ply,1
Posey,75,Masters 55-59,55-59,M,SBD,165.56,111.13,183.71,460.4,Single-ply,1
Woody Woodring,75,Masters 60-64,60-64,M,SBD,138.35,92.99,185.97,417.31,Single-ply,1
Fleming,82.5,Teen,13-19,M,SBD,272.16,163.29,226.8,662.25,Single-ply,1
Andrews #2,82.5,Juniors 20-23,20-23,M,SBD,226.8,149.69,244.94,621.42,Single-ply,1
Rafael Escamilla,82.5,Submasters 33-39,33-39,M,SBD,276.69,174.63,283.5,734.82,Single-ply,1
Peace,82.5,Submasters 33-39,33-39,M,SBD,278.96,167.83,242.67,689.46,Single-ply,2
Geoff Poole,82.5,Submasters 33-39,33-39,M,SBD,240.4,172.37,258.55,671.32,Single-ply,3
White,82.5,Submasters 33-39,33-39,M,SBD,195.04,102.06,240.4,537.51,Single-ply,4
Celano,82.5,Masters 45-49,45-49,M,SBD,204.12,122.47,188.24,514.83,Single-ply,1
Everett,82.5,Masters 65-69,65-69,M,SBD,163.29,117.93,181.44,462.66,Single-ply,1
Stephens,90,Submasters 33-39,33-39,M,SBD,238.14,161.03,238.14,637.3,Single-ply,1
Wachtel,90,Masters 40-44,40-44,M,SBD,215.46,142.88,226.8,585.13,Single-ply,1
Dwight Huell,90,Masters 40-44,40-44,M,SBD,199.58,120.2,215.46,535.24,Single-ply,2
Roper,90,Masters 45-49,45-49,M,SBD,226.8,140.61,213.19,580.6,Single-ply,1
King,90,Masters 45-49,45-49,M,SBD,226.8,115.67,204.12,546.58,Single-ply,2
Burns,90,Masters 45-49,45-49,M,SBD,136.08,120.2,154.22,410.5,Single-ply,3
Hunt,90,Masters 45-49,45-49,M,SBD,215.46,124.74,61.24,401.43,Single-ply,4
Downing,90,Masters 50-54,50-54,M,SBD,167.83,104.33,176.9,449.06,Single-ply,1
Sanders,90,Masters 55-59,55-59,M,SBD,204.12,99.79,249.48,553.38,Single-ply,1
Mark Wade,100,Submasters 33-39,33-39,M,SBD,278.96,192.78,260.82,732.55,Single-ply,1
King,100,Masters 40-44,40-44,M,SBD,204.12,145.15,217.72,566.99,Single-ply,1
Ralph Menendez,100,Masters 40-44,40-44,M,SBD,195.04,124.74,226.8,546.58,Single-ply,2
Ted Langlais,100,Masters 50-54,50-54,M,SBD,197.31,140.61,185.97,523.9,Single-ply,1
Bill Remley,100,Masters 60-64,60-64,M,SBD,226.8,147.42,231.33,605.55,Single-ply,1
Dunn,110,Teen,13-19,M,SBD,102.06,136.08,204.12,442.25,Single-ply,1
Webber,110,Juniors 20-23,20-23,M,SBD,244.94,161.03,217.72,623.69,Single-ply,1
Colbert,110,Submasters 33-39,33-39,M,SBD,294.84,204.12,249.48,748.43,Single-ply,1
Ortiz,110,Masters 40-44,40-44,M,SBD,272.16,172.37,247.21,691.73,Single-ply,1
Goney,110,Masters 45-49,45-49,M,SBD,217.72,154.22,226.8,598.74,Single-ply,1
Tony Shoemaker,110,Masters 50-54,50-54,M,SBD,215.46,124.74,226.8,566.99,Single-ply,1
Meyers,110,Masters 60-64,60-64,M,SBD,188.24,131.54,215.46,535.24,Single-ply,1
Chris McKinstry,125,Submasters 33-39,33-39,M,SBD,310.71,217.72,294.84,823.27,Single-ply,1
Mike Serrano,125,Submasters 33-39,33-39,M,SBD,272.16,181.44,226.8,680.39,Single-ply,2
Flournoy,125,Submasters 33-39,33-39,M,SBD,226.8,172.37,274.42,673.59,Single-ply,3
Gunther,125,Submasters 33-39,33-39,M,SBD,258.55,149.69,244.94,653.17,Single-ply,4
Dan Cagle,125+,Teen,13-19,M,SBD,317.52,210.92,272.16,800.59,Single-ply,1
Braden,125+,Juniors 20-23,20-23,M,SBD,306.18,192.78,285.76,784.72,Single-ply,1
Dorian Wright,125+,Submasters 33-39,33-39,M,SBD,272.16,213.19,317.52,802.86,Single-ply,1
