Division,WeightClassKg,Place,Name,Team,BodyweightKg,Best3SquatKg,Best3BenchKg,Best3DeadliftKg,TotalKg,Equipment,Event,Sex
Girls,44.23,1,Melissa Ocasio,Little Elm,43.86,92.99,58.97,108.86,260.82,Single-ply,SBD,F
Girls,44.23,2,Emerson Weaver,Frisco Heritage,43.23,79.38,40.82,86.18,206.38,Single-ply,SBD,F
Girls,44.23,3,Blayke Gilmore,Frisco Independence,42.18,54.43,29.48,83.91,167.83,Single-ply,SBD,F
Girls,44.23,4,Becca Guirguis,Frisco Independence,40.42,54.43,24.95,61.23,140.61,Single-ply,SBD,F
Girls,47.85,1,Shyan Devlin,Frisco Independence,47.45,61.23,38.56,97.52,197.31,Single-ply,SBD,F
Girls,47.85,2,Sydney Sulkin,Frisco Reedy,46.45,77.11,34.02,83.91,195.04,Single-ply,SBD,F
Girls,47.85,DQ,Alena Martin,Frisco Reedy,47.63,,,,,Single-ply,SBD,F
Girls,51.94,1,Shelbie Rhodes,Little Elm,51.53,113.4,61.23,122.47,297.1,Single-ply,SBD,F
Girls,51.94,2,Molly Chhor,Little Elm,48.4,111.13,43.09,113.4,267.62,Single-ply,SBD,F
Girls,51.94,3,Sydney Duval,Frisco Independence,50.89,90.72,49.9,90.72,231.33,Single-ply,SBD,F
Girls,51.94,4,Brenlee Wright,Frisco Independence,48.9,79.38,36.29,92.99,208.65,Single-ply,SBD,F
Girls,51.94,5,Karina Otrhalek,Frisco Liberty,51.39,63.5,40.82,65.77,170.1,Single-ply,SBD,F
Girls,51.94,6,Kaylin Tedeschi,Frisco Independence,48.72,65.77,27.22,70.31,163.29,Single-ply,SBD,F
Girls,51.94,7,Fatima De Anda,Frisco Heritage,51.44,92.99,,,92.99,Single-ply,S,F
Girls,51.94,DQ,Ashley Upp,McKinney North,50.8,,,,,Single-ply,SBD,F
Girls,56.02,1,Isabelle Fielder,Little Elm,55.88,136.08,63.5,136.08,335.66,Single-ply,SBD,F
Girls,56.02,2,Kyrie Saucedo,McKinney North,55.88,102.06,58.97,113.4,274.42,Single-ply,SBD,F
Girls,56.02,3,Allie DeJesus,Frisco Heritage,55.75,99.79,54.43,111.13,265.35,Single-ply,SBD,F
Girls,56.02,4,Brooklyn Fields,Frisco Reedy,54.34,92.99,36.29,79.38,208.65,Single-ply,SBD,F
Girls,60.1,1,Adalia McDowell,Little Elm,59.83,115.67,65.77,136.08,317.51,Single-ply,SBD,F
Girls,60.1,2,Olivia Helm,Frisco Centennial,59.69,122.47,65.77,104.33,292.57,Single-ply,SBD,F
Girls,60.1,3,MacKenzie Brown #1,Frisco Heritage,58.01,115.67,52.16,99.79,267.62,Single-ply,SBD,F
Girls,60.1,4,Lauren Guin,Little Elm,59.87,83.91,54.43,92.99,231.33,Single-ply,SBD,F
Girls,60.1,5,Meagan Gearman,Frisco Lone Star,59.1,79.38,38.56,95.25,213.19,Single-ply,SBD,F
Girls,60.1,6,Shyanne Silva,Frisco Independence,57.65,61.23,34.02,70.31,165.56,Single-ply,SBD,F
Girls,60.1,DQ,Hope Jones,Frisco Heritage,59.87,,,,,Single-ply,SBD,F
Girls,60.1,DQ,Lindsey Hilla,Frisco Heritage,59.92,,,,,Single-ply,SBD,F
Girls,67.36,1,Nancy Yousif,Frisco Heritage,66.09,195.04,79.38,154.22,428.64,Single-ply,SBD,F
Girls,67.36,2,Kimberly Jackson,Little Elm,66.86,129.27,72.57,140.61,342.46,Single-ply,SBD,F
Girls,67.36,3,Nari Sherman,Frisco Heritage,63.59,147.42,61.23,127.01,335.66,Single-ply,SBD,F
Girls,67.36,4,Trinity Chapman,Frisco Heritage,67,115.67,49.9,115.67,281.23,Single-ply,SBD,F
Girls,67.36,5,Asia Williams,Frisco Independence,67.18,102.06,54.43,111.13,267.62,Single-ply,SBD,F
Girls,67.36,6,Erika Serrano,Frisco Centennial,63.91,108.86,47.63,106.59,263.08,Single-ply,SBD,F
Girls,67.36,7,Yvonne Mackenzie,Frisco Centennial,62.6,95.25,45.36,97.52,238.14,Single-ply,SBD,F
Girls,67.36,8,Gabriella Lapp,Frisco Heritage,67.13,90.72,52.16,90.72,233.6,Single-ply,SBD,F
Girls,67.36,9,Rihab Bsoul,Frisco Liberty,66.5,77.11,45.36,99.79,222.26,Single-ply,SBD,F
Girls,67.36,10,Lauran Lusha,Frisco,66.9,79.38,43.09,88.45,210.92,Single-ply,SBD,F
Girls,67.36,11,Shamaria Williams,Frisco Lone Star,65.45,72.57,45.36,86.18,204.12,Single-ply,SBD,F
Girls,67.36,12,Valeria Carrion,Frisco,66.81,61.23,27.22,72.57,161.03,Single-ply,SBD,F
Girls,75.07,1,Hannah Skinner,Little Elm,70.26,138.35,88.45,131.54,358.34,Single-ply,SBD,F
Girls,75.07,2,Emma Dang,Frisco Heritage,75.07,124.74,63.5,140.61,328.85,Single-ply,SBD,F
Girls,75.07,3,Emily Hamm,Frisco Reedy,69.81,99.79,54.43,113.4,267.62,Single-ply,SBD,F
Girls,75.07,4,Stephanie Hudson,Frisco Lone Star,71.99,111.13,63.5,92.99,267.62,Single-ply,SBD,F
Girls,75.07,5,Karlene Stelling,Frisco Reedy,71.94,99.79,56.7,102.06,258.55,Single-ply,SBD,F
Girls,75.07,6,Leah Smith,Frisco Centennial,70.49,81.65,43.09,92.99,217.72,Single-ply,SBD,F
Girls,75.07,DQ,Raya Riley,Frisco Lone Star,74.84,,,,,Single-ply,SBD,F
Girls,82.33,1,Faith Goins,Little Elm,80.47,156.49,79.38,170.1,405.97,Single-ply,SBD,F
Girls,82.33,2,Seriah Carrillo,Frisco Heritage,77.47,117.93,77.11,149.69,344.73,Single-ply,SBD,F
Girls,82.33,3,Ashlyn Tyler,Frisco Independence,76.93,106.59,61.23,104.33,272.16,Single-ply,SBD,F
Girls,82.33,4,Kahlisa Jackson,McKinney North,79.92,95.25,52.16,124.74,272.16,Single-ply,SBD,F
Girls,82.33,5,Cameron Hernandez,Little Elm,80.92,102.06,65.77,,167.83,Single-ply,SB,F
Girls,82.33,6,Kylie Hancock,Frisco,75.84,72.57,47.63,,120.2,Single-ply,SB,F
Girls,90.04,1,Nelly Chimal,Frisco Liberty,83.23,113.4,61.23,111.13,285.76,Single-ply,SBD,F
Girls,90.04,DQ,Reagon Whitehead,Little Elm,89.81,,,,,Single-ply,SBD,F
Girls,100.02,1,Kayley Moore,McKinney North,92.08,124.74,61.23,127.01,312.98,Single-ply,SBD,F
Girls,100.02,2,Blessing Dim,McKinney North,91.31,95.25,29.48,120.2,244.94,Single-ply,SBD,F
Girls,100.02,DQ,Natelie Gibson,Frisco Centennial,99.79,,,,,Single-ply,SBD,F
Girls,117.71,1,Hallee Kolarek,Little Elm,109.5,167.83,77.11,124.74,369.68,Single-ply,SBD,F
